<?xml version="1.0" encoding="UTF-8" standalone="no"?>
<svg
   width="752pt"
   height="752pt"
   version="1.1"
   viewBox="0 0 752 752"
   id="svg4"
   sodipodi:docname="icon.svg"
   inkscape:version="1.2 (dc2aedaf03, 2022-05-15)"
   xmlns:inkscape="http://www.inkscape.org/namespaces/inkscape"
   xmlns:sodipodi="http://sodipodi.sourceforge.net/DTD/sodipodi-0.dtd"
   xmlns="http://www.w3.org/2000/svg"
   xmlns:svg="http://www.w3.org/2000/svg">
  <defs
     id="defs8" />
  <sodipodi:namedview
     id="namedview6"
     pagecolor="#ffffff"
     bordercolor="#666666"
     borderopacity="1.0"
     inkscape:showpageshadow="2"
     inkscape:pageopacity="0.0"
     inkscape:pagecheckerboard="0"
     inkscape:deskcolor="#d1d1d1"
     inkscape:document-units="pt"
     showgrid="false"
     inkscape:zoom="0.37051197"
     inkscape:cx="550.5895"
     inkscape:cy="639.65545"
     inkscape:window-width="1840"
     inkscape:window-height="1027"
     inkscape:window-x="80"
     inkscape:window-y="0"
     inkscape:window-maximized="1"
     inkscape:current-layer="svg4" />
  <path
     d="m 284.03838,73.459596 c 0,-27.195414 22.04766,-49.248788 49.24878,-49.248788 h 85.43329 c 27.20302,0 49.24878,22.055272 49.24878,49.248788 V 110.4751 c 10.54824,3.65477 20.8135,7.91863 30.74579,12.74691 L 524.90067,97.043974 539.53438,111.6777 524.90067,97.043974 c 19.23132,-19.231325 50.41638,-19.231325 69.64772,0 l -14.92354,14.923536 14.92354,-14.923536 60.41524,60.407636 c 19.23133,19.23894 19.23133,50.424 0,69.65533 l -26.18564,26.18564 c 4.83588,9.93173 9.09975,20.18977 12.74691,30.74579 h 37.01551 c 27.20302,0 49.24878,22.04767 49.24878,49.24879 v 85.43328 c 0,27.20302 -22.04766,49.24879 -49.24878,49.24879 H 641.5249 c -3.64736,10.54823 -7.91123,20.81349 -12.74691,30.74579 l 26.18564,26.18563 c 19.23133,19.23134 19.23133,50.4164 0,69.64773 l -60.41524,60.41525 c -19.23134,19.23132 -50.4164,19.23132 -69.64772,0 l -26.18565,-26.18564 c -9.93172,4.83588 -20.19737,9.09974 -30.74579,12.74691 v 37.0155 c 0,27.20302 -22.04766,49.24879 -49.24878,49.24879 h -85.43329 c -27.20302,0 -49.24878,-22.04767 -49.24878,-49.24879 v -37.0155 c -10.55565,-3.65477 -20.81349,-7.91123 -30.74578,-12.74691 l -26.18564,26.18564 c -19.23134,19.23132 -50.41641,19.23132 -69.65534,0 L 97.043981,594.54838 111.67771,579.92207 97.043981,594.54838 c -19.231329,-19.23133 -19.231329,-50.41639 0,-69.64773 l 26.178039,-26.18563 c -4.82847,-9.93173 -9.09214,-20.19738 -12.74691,-30.74579 H 73.459597 c -27.195416,0 -49.248786,-22.04767 -49.248786,-49.24879 v -85.43328 c 0,-27.20302 22.055271,-49.24879 49.248786,-49.24879 h 37.015513 c 3.65477,-10.55564 7.91863,-20.8135 12.74691,-30.74579 L 97.043981,227.10694 c -19.231329,-19.23133 -19.231329,-50.41639 0,-69.65533 L 157.45162,97.043974 c 19.23893,-19.231325 50.424,-19.231325 69.65534,0 l 26.18564,26.178036 c 9.93171,-4.82846 20.18975,-9.09214 30.74578,-12.74691 z m 49.24878,-7.034563 c -3.88505,0 -7.03456,3.149505 -7.03456,7.034563 v 52.502494 c 0,9.44129 -6.27694,17.73874 -15.36908,20.30957 -18.04337,5.10325 -35.21845,12.27891 -51.26264,21.25277 -8.24533,4.61301 -18.54845,3.18678 -25.22721,-3.49864 l -37.14102,-37.13342 c -2.74844,-2.74844 -7.1981,-2.74844 -9.94654,0 l -60.41525,60.41525 c -2.74844,2.74845 -2.74844,7.19811 0,9.94655 l 37.14102,37.14101 c 6.67801,6.67801 8.10424,16.98112 3.49122,25.22722 -8.97348,16.04512 -16.14914,33.21982 -21.25277,51.27023 -2.57026,9.08473 -10.86752,15.36168 -20.30956,15.36168 H 73.458266 c -3.88506,0 -7.034563,3.14951 -7.034563,7.03456 v 85.43327 c 0,3.88507 3.149503,7.03457 7.034563,7.03457 h 52.502504 c 9.44128,0 17.73873,6.27695 20.30956,15.36167 5.10325,18.04338 12.27891,35.22417 21.25277,51.26264 4.61302,8.24533 3.18679,18.55585 -3.49122,25.23482 l -37.14102,37.1334 c -2.74844,2.74846 -2.74844,7.20553 0,9.95397 l 60.41525,60.40763 c 2.74844,2.74846 7.1981,2.74846 9.94654,0.008 l 14.93095,14.92352 -14.93095,-14.93094 37.14102,-37.13341 c 6.678,-6.67801 16.98112,-8.10424 25.22721,-3.49123 16.04513,8.97348 33.21983,16.14914 51.26264,21.25277 9.09214,2.57027 15.36908,10.86752 15.36908,20.30957 v 52.49489 c 0,3.88506 3.14951,7.03456 7.03456,7.03456 h 85.43329 c 3.88505,0 7.03456,-3.1495 7.03456,-7.03456 V 626.0487 c 0,-9.44129 6.27694,-17.73872 15.36167,-20.30957 18.04337,-5.10325 35.22416,-12.27891 51.26262,-21.25277 8.24535,-4.61301 18.55588,-3.18678 25.23482,3.49123 l 37.13343,37.13341 c 2.74844,2.74845 7.20551,2.74845 9.95396,0 l 60.40764,-60.40764 c 2.74844,-2.74844 2.74844,-7.20552 0,-9.95396 l -37.13341,-37.13341 c -6.67801,-6.67801 -8.10425,-16.98853 -3.49123,-25.23482 8.97348,-16.03771 16.14914,-33.21983 21.25277,-51.26263 2.57027,-9.08473 10.86752,-15.36168 20.30956,-15.36168 h 52.4949 c 3.88506,0 7.03457,-3.14951 7.03457,-7.03456 v -85.43327 c 0,-3.88506 -3.14951,-7.03457 -7.03457,-7.03457 h -52.4949 c -9.44128,0 -17.73873,-6.27695 -20.30956,-15.36167 -5.10325,-18.05079 -12.27891,-35.22416 -21.25277,-51.27024 -4.61302,-8.24534 -3.18678,-18.54845 3.49123,-25.22722 l 37.13341,-37.1334 c 2.74844,-2.74844 2.74844,-7.20553 0,-9.95397 l -60.40764,-60.41524 c -2.74845,-2.74845 -7.20552,-2.74845 -9.95396,0 l -37.13343,37.13341 c -6.678,6.68541 -16.98852,8.11166 -25.23482,3.49864 -16.0377,-8.97348 -33.21982,-16.14914 -51.26262,-21.25278 -9.08473,-2.57025 -15.36167,-10.86752 -15.36167,-20.30955 V 73.459792 c 0,-3.885057 -3.14951,-7.034563 -7.03456,-7.034563 z M 376,244.48931 c -72.6333,0 -131.51011,58.87681 -131.51011,131.51011 0,72.63332 58.87681,131.51774 131.51011,131.51774 72.63332,0 131.51774,-58.88442 131.51774,-131.51774 0,-11.65499 9.44888,-21.10445 21.11205,-21.10445 11.65499,0 21.10445,9.4489 21.10445,21.10445 0,95.95128 -77.78106,173.73234 -173.73234,173.73234 -95.94366,0 -173.72472,-77.78106 -173.72472,-173.73234 0,-95.94366 77.78106,-173.72472 173.72472,-173.72472 11.66241,0 21.11207,9.44889 21.11207,21.10445 0,11.66241 -9.4489,21.11205 -21.11207,21.11205 z m 135.75269,57.40683 c 8.24535,-8.23791 8.24535,-21.60077 0,-29.8463 -8.23792,-8.24534 -21.60838,-8.24534 -29.84631,0 L 376.0019,377.94861 340.05702,342.00372 c -8.24533,-8.24533 -21.60839,-8.24533 -29.85392,0 -8.23791,8.23793 -8.23791,21.6084 0,29.84632 l 50.8766,50.8766 c 8.24535,8.24533 21.60839,8.24533 29.84631,0 z"
     fill-rule="evenodd"
     id="path2"
     style="stroke-width:1.90165;fill:#204a87" />
</svg>
